…
> CalExpCurve(
+   cq.table,
+   curve.table,
+   design.table,
+   correction = TRUE,
+   ref.gene = "OsUBQ",
+   stat.method = "t.test",
+   ref.group = "CK",
+   fig.type = "box",
+   fig.ncol = NULL) -> res
Warning in CalExpCurve(cq.table, curve.table, design.table, correction = TRUE,  :
  Cq of A3 out of curve range!
> 
> res[["table"]]
# A tibble: 80 x 9
   Treatment Gene    expre temp      signif mean.expre sd.expre     n     se
   <chr>     <chr>   <dbl> <chr>     <chr>       <dbl>    <dbl> <int>  <dbl>
 1 CK        OSPOX8  1.03  OSPOX8CK  <NA>        1.04    0.0483     8 0.0171
 2 CK        OsWAK91 0.279 OsWAK91CK <NA>        0.763   0.212      8 0.0750
 3 CK        OsRBBI2 0.507 OsRBBI2CK <NA>        0.540   0.0431     8 0.0152
 4 CK        OsCeBip 0.904 OsCeBipCK <NA>        0.842   0.171      8 0.0606
 5 CK        OsPR10  1.13  OsPR10CK  <NA>        1.25    0.201      8 0.0711
 6 CK        OSPOX8  1.07  OSPOX8CK  <NA>        1.04    0.0483     8 0.0171
 7 CK        OsWAK91 0.734 OsWAK91CK <NA>        0.763   0.212      8 0.0750
 8 CK        OsRBBI2 0.497 OsRBBI2CK <NA>        0.540   0.0431     8 0.0152
 9 CK        OsCeBip 0.751 OsCeBipCK <NA>        0.842   0.171      8 0.0606
10 CK        OsPR10  1.06  OsPR10CK  <NA>        1.25    0.201      8 0.0711
# ... with 70 more rows
…
